module gitlab.com/Xangelix/dejavu

go 1.18

require (
	github.com/88250/gulu v1.2.3-0.20230501031728-4d62370997cd
	github.com/aws/aws-sdk-go v1.44.308
	github.com/dgraph-io/ristretto v0.1.1
	github.com/dustin/go-humanize v1.0.1
	github.com/klauspost/compress v1.16.7
	github.com/panjf2000/ants/v2 v2.8.1
	github.com/qiniu/go-sdk/v7 v7.17.0
	github.com/restic/chunker v0.4.0
	github.com/sabhiram/go-gitignore v0.0.0-20210923224102-525f6e181f06
	github.com/siyuan-note/encryption v0.0.0-20220713091850-5ecd92177b75
	github.com/siyuan-note/eventbus v0.0.0-20230702081350-6dde667e7112
	github.com/siyuan-note/filelock v0.0.0-20230615140405-d05a21d49524
	github.com/siyuan-note/httpclient v0.0.0-20230827092931-dfa68ac1958d
	github.com/siyuan-note/logging v0.0.0-20230327073243-ebe83aec1493
	github.com/studio-b12/gowebdav v0.9.0
)

require (
	github.com/andybalholm/brotli v1.0.5 // indirect
	github.com/asaskevich/EventBus v0.0.0-20200907212545-49d423059eef // indirect
	github.com/cespare/xxhash/v2 v2.2.0 // indirect
	github.com/gaukas/godicttls v0.0.4 // indirect
	github.com/getsentry/sentry-go v0.22.0 // indirect
	github.com/go-task/slim-sprig v0.0.0-20230315185526-52ccab3ef572 // indirect
	github.com/golang/glog v1.1.1 // indirect
	github.com/golang/mock v1.6.0 // indirect
	github.com/google/pprof v0.0.0-20230821062121-407c9e7a662f // indirect
	github.com/hashicorp/errwrap v1.1.0 // indirect
	github.com/hashicorp/go-multierror v1.1.1 // indirect
	github.com/imroc/req/v3 v3.41.7 // indirect
	github.com/jmespath/go-jmespath v0.4.0 // indirect
	github.com/onsi/ginkgo/v2 v2.12.0 // indirect
	github.com/pkg/errors v0.9.1 // indirect
	github.com/quic-go/qpack v0.4.0 // indirect
	github.com/quic-go/qtls-go1-20 v0.3.3 // indirect
	github.com/quic-go/quic-go v0.38.1 // indirect
	github.com/refraction-networking/utls v1.4.3 // indirect
	golang.org/x/crypto v0.12.0 // indirect
	golang.org/x/exp v0.0.0-20230817173708-d852ddb80c63 // indirect
	golang.org/x/mod v0.12.0 // indirect
	golang.org/x/net v0.14.0 // indirect
	golang.org/x/sync v0.3.0 // indirect
	golang.org/x/sys v0.11.0 // indirect
	golang.org/x/text v0.12.0 // indirect
	golang.org/x/tools v0.12.1-0.20230815132531-74c255bcf846 // indirect
)
